Franklin Santos - Análisis de datos experimentales agrícolas
…
Análisis multivariado

-------------------------------------------------------------------------------
Principal Component Analysis
-------------------------------------------------------------------------------
# A tibble: 22 × 4
   PC    Eigenvalues `Variance (%)` `Cum. variance (%)`
   <chr>       <dbl>          <dbl>               <dbl>
 1 PC1         14.2            64.4                64.4
 2 PC2          5.24           23.8                88.2
 3 PC3          2.58           11.8               100  
 4 PC4          0               0                 100  
 5 PC5          0               0                 100  
 6 PC6          0               0                 100  
 7 PC7          0               0                 100  
 8 PC8          0               0                 100  
 9 PC9          0               0                 100  
10 PC10         0               0                 100  
# … with 12 more rows
-------------------------------------------------------------------------------
Factor Analysis - factorial loadings after rotation-
-------------------------------------------------------------------------------
# A tibble: 22 × 6
   VAR     FA1   FA2   FA3 Communality Uniquenesses
   <chr> <dbl> <dbl> <dbl>       <dbl>        <dbl>
 1 NNCF  -0.72 -0.67 -0.17           1            0
 2 WNCF  -0.65 -0.75 -0.14           1            0
 3 AWNCF  0.63  0.49  0.6            1            0
 4 WUE    1     0.04  0.03           1            0
 5 NDBF  -0.11  0.07 -0.99           1            0
 6 NDFF  -0.16 -0.24 -0.96           1            0
 7 NDBH  -0.17  0.07 -0.98           1            0
 8 PHYL   0.6   0.79 -0.12           1            0
 9 TA     0.84  0.1   0.54           1            0
10 NCF   -0.84 -0.42 -0.35           1            0
# … with 12 more rows
-------------------------------------------------------------------------------
Comunalit Mean: 1 
-------------------------------------------------------------------------------
Selection differential 
-------------------------------------------------------------------------------
# A tibble: 22 × 8
   VAR    Factor       Xo       Xs        SD  SDperc sense     goal
   <chr>  <chr>     <dbl>    <dbl>     <dbl>   <dbl> <chr>    <dbl>
 1 NNCF   FA1        7.20     7.86    0.650    9.02  increase   100
 2 AWNCF  FA1        8.74     8.70   -0.0425  -0.486 increase     0
 3 WUE    FA1      116.     101.    -15.0    -12.9   increase     0
 4 TA     FA1        1.42     1.35   -0.0700  -4.93  increase     0
 5 NCF    FA1       23.5     25.0     1.52     6.48  increase   100
 6 TNF    FA1       30.7     32.8     2.16     7.04  increase   100
 7 WCF    FA1      359.     395.     36.9     10.3   increase   100
 8 TWF    FA1      413.     442.     29.1      7.05  increase   100
 9 FY     FA1    30957.   33137.   2180.       7.04  increase   100
10 TSS_TA FA1        5.39     5.66    0.268    4.96  increase   100
# … with 12 more rows
…
