Franklin Santos - Análisis de Varianza y Prueba de Promedios en R
…
La librería de easyanova es un paquete para realizar análisis de experimentos agrícolas y animales. Las funciones de esta librería son fáciles de usar. Realiza análisis en varios diseños, con datos balanceados y no balanceados.

Salida de datos a utilizar:

#datos
tibble(iris)

# A tibble: 150 × 5
   Sepal.Length Sepal.Width Petal.Length Petal.Width Species
          <dbl>       <dbl>        <dbl>       <dbl> <fct>  
 1          5.1         3.5          1.4         0.2 setosa 
 2          4.9         3            1.4         0.2 setosa 
 3          4.7         3.2          1.3         0.2 setosa 
 4          4.6         3.1          1.5         0.2 setosa 
 5          5           3.6          1.4         0.2 setosa 
 6          5.4         3.9          1.7         0.4 setosa 
 7          4.6         3.4          1.4         0.3 setosa 
 8          5           3.4          1.5         0.2 setosa 
 9          4.4         2.9          1.4         0.2 setosa 
10          4.9         3.1          1.5         0.1 setosa 
# … with 140 more rows
…
Con este código, es la columna p adj (también la última columna) la que interesa. Tenga en cuenta que las conclusiones son las mismas que las anteriores: todas las especies son significativamente diferentes en términos de ancho de sépalo.

Visualización de ANVA y pruebas de promedio

Para realizar de forma más fácil un análisis de varianza, se puede usar la librería easyanova para analizar diferentes diseños experimentales.

Análisis de varianza con easyanova

Para proceder con ANVA los datos de iris se selecciona y ordena para dar uso con el paquete easyanova.

fsdata <- iris %>%
  dplyr::select(Species, Sepal.Width)
tibble(fsdata)

# A tibble: 150 × 2
   Species Sepal.Width
   <fct>         <dbl>
 1 setosa          3.5
 2 setosa          3  
 3 setosa          3.2
 4 setosa          3.1
 5 setosa          3.6
 6 setosa          3.9
 7 setosa          3.4
 8 setosa          3.4
 9 setosa          2.9
10 setosa          3.1
# … with 140 more rows
…
