Franklin Santos - Ordenar datos con el paquete Tidyverse
…
Necesitamos agrupar todas las columnas desde nuevos_fpp_h014 hasta recaidas_m65. No sabemos aún qué representa esto, por lo que le daremos el nombre genérico de "clave". Sabemos que las celdas representan la cuenta de casos, por lo que usaremos la variable casos.

Existen múltiples valores faltantes en la representación actual, por lo que de momento usaremos na.rm para centrarnos en los valores que están presentes.

oms1 <- oms %>%
  pivot_longer(
    cols = nuevos_fpp_h014:nuevosrecaida_m65, 
    names_to = "clave", 
    values_to = "casos", 
    values_drop_na = TRUE
  )
oms1

# A tibble: 76,046 × 6
   pais       iso2  iso3   anio clave            casos
   <chr>      <chr> <chr> <int> <chr>            <int>
 1 Afganistán AF    AFG    1997 nuevos_fpp_h014      0
 2 Afganistán AF    AFG    1997 nuevos_fpp_h1524    10
 3 Afganistán AF    AFG    1997 nuevos_fpp_h2534     6
 4 Afganistán AF    AFG    1997 nuevos_fpp_h3544     3
 5 Afganistán AF    AFG    1997 nuevos_fpp_h4554     5
 6 Afganistán AF    AFG    1997 nuevos_fpp_h5564     2
 7 Afganistán AF    AFG    1997 nuevos_fpp_h65       0
 8 Afganistán AF    AFG    1997 nuevos_fpp_m014      5
 9 Afganistán AF    AFG    1997 nuevos_fpp_m1524    38
10 Afganistán AF    AFG    1997 nuevos_fpp_m2534    36
# … with 76,036 more rows

Para visualizar el conteo de valores en la nueva columna clave:

oms1 %>%
  count(clave)

# A tibble: 56 × 2
   clave               n
   <chr>           <int>
 1 nuevos_ep_h014   1038
 2 nuevos_ep_h1524  1026
 3 nuevos_ep_h2534  1020
 4 nuevos_ep_h3544  1024
 5 nuevos_ep_h4554  1020
 6 nuevos_ep_h5564  1015
 7 nuevos_ep_h65    1018
 8 nuevos_ep_m014   1032
 9 nuevos_ep_m1524  1021
10 nuevos_ep_m2534  1021
# … with 46 more rows
…
3544 = 35 – 44 años de edad

4554 = 45 – 54 años de edad

5564 = 55 – 64 años de edad

65 = 65 o más años de edad

Necesitamos hacer un pequeño cambio al formato de los nombres de las columnas: desafortunadamente lo nombres de las columnas son ligeramente inconsistentes debido a que en lugar de nuevos_recaida tenemos nuevosrecaida (es difícil darse cuenta de esto en esta parte, pero si no lo arreglas habrá errores en los pasos siguientes). Para esto, la idea básica es bastante simple: reemplazar los caracteres “nuevosrecaida” por “nuevos_recaida”. Esto genera nombres de variables consistentes.

oms2 <- oms1 %>%
  mutate(clave = stringr::str_replace(clave, "nuevosrecaida", "nuevos_recaida"))
oms2

# A tibble: 76,046 × 6
   pais       iso2  iso3   anio clave            casos
   <chr>      <chr> <chr> <int> <chr>            <int>
 1 Afganistán AF    AFG    1997 nuevos_fpp_h014      0
 2 Afganistán AF    AFG    1997 nuevos_fpp_h1524    10
 3 Afganistán AF    AFG    1997 nuevos_fpp_h2534     6
 4 Afganistán AF    AFG    1997 nuevos_fpp_h3544     3
 5 Afganistán AF    AFG    1997 nuevos_fpp_h4554     5
 6 Afganistán AF    AFG    1997 nuevos_fpp_h5564     2
 7 Afganistán AF    AFG    1997 nuevos_fpp_h65       0
 8 Afganistán AF    AFG    1997 nuevos_fpp_m014      5
 9 Afganistán AF    AFG    1997 nuevos_fpp_m1524    38
10 Afganistán AF    AFG    1997 nuevos_fpp_m2534    36
# … with 76,036 more rows

Una vez reemplazado, nos facilita separar los valores en cada código aplicando separate() dos veces. La primera aplicación dividirá los códigos en cada _.

oms3 <- oms2 %>%
  separate(clave, c("nuevos", "tipo", "sexo_edad"), sep = "_")
oms3

# A tibble: 76,046 × 8
   pais       iso2  iso3   anio nuevos tipo  sexo_edad casos
   <chr>      <chr> <chr> <int> <chr>  <chr> <chr>     <int>
 1 Afganistán AF    AFG    1997 nuevos fpp   h014          0
 2 Afganistán AF    AFG    1997 nuevos fpp   h1524        10
 3 Afganistán AF    AFG    1997 nuevos fpp   h2534         6
 4 Afganistán AF    AFG    1997 nuevos fpp   h3544         3
 5 Afganistán AF    AFG    1997 nuevos fpp   h4554         5
 6 Afganistán AF    AFG    1997 nuevos fpp   h5564         2
 7 Afganistán AF    AFG    1997 nuevos fpp   h65           0
 8 Afganistán AF    AFG    1997 nuevos fpp   m014          5
 9 Afganistán AF    AFG    1997 nuevos fpp   m1524        38
10 Afganistán AF    AFG    1997 nuevos fpp   m2534        36
# … with 76,036 more rows
…
# A tibble: 1 × 2
  nuevos     n
  <chr>  <int>
1 nuevos 76046

oms4 <- oms3 %>%
  select(-nuevos, -iso2, -iso3)

Luego separamos sexo_edad en sexo y edad dividiendo luego del primer carácter:

oms5 <- oms4 %>%
  separate(sexo_edad, c("sexo", "edad"), sep = 1)
oms5

# A tibble: 76,046 × 6
   pais        anio tipo  sexo  edad  casos
   <chr>      <int> <chr> <chr> <chr> <int>
 1 Afganistán  1997 fpp   h     014       0
 2 Afganistán  1997 fpp   h     1524     10
 3 Afganistán  1997 fpp   h     2534      6
 4 Afganistán  1997 fpp   h     3544      3
 5 Afganistán  1997 fpp   h     4554      5
 6 Afganistán  1997 fpp   h     5564      2
 7 Afganistán  1997 fpp   h     65        0
 8 Afganistán  1997 fpp   m     014       5
 9 Afganistán  1997 fpp   m     1524     38
10 Afganistán  1997 fpp   m     2534     36
# … with 76,036 more rows
…
En la anterior sección se hizo el procedimiento de ordenación paso a paso, asignando los resultados intermedios a nuevas variables. Esta no es la forma típica de trabajo. En realidad, los códigos debería ser de manera incremental usando pipes ("%>%):

fsdata<- oms %>%
  pivot_longer(
    cols = nuevos_fpp_h014:nuevosrecaida_m65,
    names_to = "clave", 
    values_to = "valor", 
    values_drop_na = TRUE) %>%
  mutate(clave = stringr::str_replace(clave, "nuevosrecaida", "nuevos_recaida")) %>%
  separate(clave, c("nuevos", "tipo", "sexo_edad")) %>%
  select(-nuevos, -iso2, -iso3) %>%
  separate(sexo_edad, c("sexo", "edad"), sep = 1)
fsdata

# A tibble: 76,046 × 6
   pais        anio tipo  sexo  edad  valor
   <chr>      <int> <chr> <chr> <chr> <int>
 1 Afganistán  1997 fpp   h     014       0
 2 Afganistán  1997 fpp   h     1524     10
 3 Afganistán  1997 fpp   h     2534      6
 4 Afganistán  1997 fpp   h     3544      3
 5 Afganistán  1997 fpp   h     4554      5
 6 Afganistán  1997 fpp   h     5564      2
 7 Afganistán  1997 fpp   h     65        0
 8 Afganistán  1997 fpp   m     014       5
 9 Afganistán  1997 fpp   m     1524     38
10 Afganistán  1997 fpp   m     2534     36
# … with 76,036 more rows
…
