Franklin Santos - Analisis de datos climaticos
…
                    '1'='Ene', 
                    '2'='Feb',
                    '3'='Mar',
                    '4'='Abr',
                    '5'='May',
                    '6'='Jun',
                    '7'='Jul',
                    '8'='Ago',
                    '9'='Sep',
                    '10'='Oct',
                    '11'='Nov',
                    '12'='Dic'))
db  

# A tibble: 485 × 10
   gestion mes     dia    PP  Tmax  Tmin Tmean HRmax HRmin HRmean
   <fct>   <fct> <dbl> <dbl> <dbl> <dbl> <dbl> <dbl> <dbl>  <dbl>
 1 2022    Ene       1   0.4  31.4  9.92  20.6  93.2  19.3   53.4
 2 2022    Ene       2   0    33.3 11.7   19.7  96.6  18.0   69.6
 3 2022    Ene       3   5.1  29.6 14.4   21.0  88.7  27.2   58.7
 4 2022    Ene       4   0    30.1 14.1   20.1  90.8  23.6   66.3
 5 2022    Ene       5   1.5  21.9 13.4   16.7  94.6  47.8   81.0
 6 2022    Ene       6   4.5  25.5 14.4   19.8  94.3  35.9   65.8
 7 2022    Ene       7   0    27.3 14.7   20.4  95.6  39.9   67.3
 8 2022    Ene       8  24.2  25.3 15.3   19.0  91.3  49.6   74.5
 9 2022    Ene       9   0    26.9 15.5   20.2  92.7  38.5   70.6
10 2022    Ene      10   0    24   14.5   18.5  91.9  47.2   73.0
# ℹ 475 more rows
…
Humedad relativa plot

fechas = df%>%
  rename(any_of(newvar))%>%
  select(c(1,2,3, 8:14))%>%
  mutate_if(is.character, as.numeric)%>%
  mutate(fecha = make_datetime(gestion,mes,dia))%>%
  select(fecha,HRmin,HRmax, HRmean)
fechas

# A tibble: 485 × 4
   fecha               HRmin HRmax HRmean
   <dttm>              <dbl> <dbl>  <dbl>
 1 2022-01-01 00:00:00  19.3  93.2   53.4
 2 2022-01-02 00:00:00  18.0  96.6   69.6
 3 2022-01-03 00:00:00  27.2  88.7   58.7
 4 2022-01-04 00:00:00  23.6  90.8   66.3
 5 2022-01-05 00:00:00  47.8  94.6   81.0
 6 2022-01-06 00:00:00  35.9  94.3   65.8
 7 2022-01-07 00:00:00  39.9  95.6   67.3
 8 2022-01-08 00:00:00  49.6  91.3   74.5
 9 2022-01-09 00:00:00  38.5  92.7   70.6
10 2022-01-10 00:00:00  47.2  91.9   73.0
# ℹ 475 more rows
…
