Análisis predictivo usando tidymodels – Franklin Santos
…
pumpkins

# A tibble: 15,965 × 6
   weight_lbs  year place   ott gpc_site                                 country
        <dbl> <dbl> <dbl> <dbl> <chr>                                    <chr>  
 1      2032   2013     1   475 Uesugi Farms Weigh-off                   United…
 2      1985   2013     2   453 Safeway World Championship Pumpkin Weig… United…
 3      1894   2013     3   445 Safeway World Championship Pumpkin Weig… United…
 4      1874.  2013     4   436 Elk Grove Giant Pumpkin Festival         United…
 5      1813   2013     5   430 The Great Howard Dill Giant Pumpkin Cla… Canada 
 6      1791   2013     6   431 Elk Grove Giant Pumpkin Festival         United…
 7      1784   2013     7   445 Uesugi Farms Weigh-off                   United…
 8      1784.  2013     8   434 Stillwater Harvestfest                   United…
 9      1780.  2013     9   422 Stillwater Harvestfest                   United…
10      1766.  2013    10   425 Durham Fair Weigh-Off                    United…
# ℹ 15,955 more rows
…
